…
    ## W), 44=FOX - Columbia (WACH), 45=FOX - Dakota Dunes SD (KPTH), 46=FOX - Denver (KDVR), 47=FOX - 
    ## Des Moines (KDSM), 48=FOX - Greenville (WHNS), 49=FOX - Las Vegas (KVVU), 50=FOX - Newport KY (W
    ## XIX), 51=FOX - Orlando (WOFL), 52=FOX - Philadelphia (WTXF), 53=FOX - Raleigh (WRAZ), 54=FOX - R
    ## oanoke (WFXR), 55=FOX - San Francisco (KTVU), 56=FOX - Tampa (WTVT), 57=FOX - Virginia Beach (WV
    ## BT), 58=FOX - Washington DC (WTTG), 59=MYTV - Las Vegas (KSNV), 60=NBC - Boston (WHDH), 61=NBC -
    ##  Charlotte (WCNC), 62=NBC - Cincinnati (WLWT), 63=NBC - Cleveland (WKYC), 64=NBC - Columbia (WIS
    ## ), 65=NBC - Daytona Beach (WESH), 66=NBC - Denver (KUSA), 67=NBC - Des Moines (WHO), 68=NBC - Go
    ## ldsboro (WNCN), 69=NBC - Greenville (WYFF), 70=NBC - Miami (WTVJ), 71=NBC - Philadelphia (WCAU),
    ##  72=NBC - Portsmouth (WAVY), 73=NBC - Pueblo (KOAA), 74=NBC - Reno (KRNV), 75=NBC - Roanoke (WSL
    ## S), 76=NBC - San Francisco (KNTV), 77=NBC - Sioux City (KTIV), 78=NBC - Tampa (WFLA), 79=NBC - W
    ## ashington DC (WRC), 80=NBC - Waterloo (KWWL), 81=PBS - San Francisco (KQED)
    ## 
    ## 1,000 top query matches from the following shows:
    ## 
    ## Source: local data frame [322 x 3]
    ## Groups: station [61]
    ## 
    ##                       station                            show     n
    ##                         <chr>                           <chr> <int>
    ## 1  PBS - San Francisco (KQED)                    PBS NewsHour    49
    ## 2         ABC - Boston (WCVB)          Newscenter 5 Eyeopener    39
    ## 3  CBS - San Francisco (KPIX)              KPIX 5 News at 5PM    23
    ## 4          FOX - Tampa (WTVT)         Good Day Tampa Bay  9AM    18
    ## 5  CBS - San Francisco (KPIX)            KPIX 5 News at 600PM    16
    ## 6          CBS - Boston (WBZ)                WBZ This Morning    14
    ## 7  CBS - San Francisco (KPIX)                     KPIX 5 News    13
    ## 8   FOX - Cedar Rapids (KFXA)                Fox 28 News at 9    12
    ## 9          NBC - Tampa (WFLA)           News Ch8 Today at 6AM    12
    ## 10 PBS - San Francisco (KQED) Washington Week With Gwen Ifill    12
    ## # ... with 312 more rows

The closed-caption text snippets are returned for the "top matches" (usually max 1,000 for a broad enough search) and you can extract them from the object directly with `x$top_matches$snippet` or use `top_text(x)`:

``` r
top_text(query_tv("cheese", filter_network="AFFNETALL"))
```

    ## # A tibble: 40,649 × 4
    ##                   station                         show  show_date      word
    ##                     <chr>                        <chr>     <dttm>     <chr>
    ## 1  NBC - Goldsboro (WNCN) North Carolina News at 530AM 2016-11-25 telephone
    ## 2  NBC - Goldsboro (WNCN) North Carolina News at 530AM 2016-11-25     rings
    ## 3  NBC - Goldsboro (WNCN) North Carolina News at 530AM 2016-11-25       o.k
    ## 4  NBC - Goldsboro (WNCN) North Carolina News at 530AM 2016-11-25       say
    ## 5  NBC - Goldsboro (WNCN) North Carolina News at 530AM 2016-11-25    cheese
    ## 6  NBC - Goldsboro (WNCN) North Carolina News at 530AM 2016-11-25    cheese
    ## 7  NBC - Goldsboro (WNCN) North Carolina News at 530AM 2016-11-25    cheese
    ## 8  NBC - Goldsboro (WNCN) North Carolina News at 500AM 2016-11-25       hmm
    ## 9  NBC - Goldsboro (WNCN) North Carolina News at 500AM 2016-11-25    really
    ## 10 NBC - Goldsboro (WNCN) North Carolina News at 500AM 2016-11-25      what
    ## # ... with 40,639 more rows
…
